EESchema Schematic File Version 4
LIBS:uTerror-cache
EELAYER 29 0
EELAYER END
$Descr A4 11693 8268
encoding utf-8
Sheet 1 1
Title "uTerror"
Date "2019-05-01"
Rev "0.1"
Comp "José Relvão"
Comment1 "Original by Orange Music Electronic Company"
Comment2 ""
Comment3 ""
Comment4 ""
$EndDescr
$Comp
L Connector:AudioJack3_Switch J1
U 1 1 5CBF4461
P 1150 1400
F 0 "J1" H 1154 1842 50  0000 C CNN
F 1 "Input" H 1154 1751 50  0000 C CNN
F 2 "audio_connector:Headphone_Jack_6.35mm" H 1150 1400 50  0001 C CNN
F 3 "~" H 1150 1400 50  0001 C CNN
	1    1150 1400
	1    0    0    -1  
$EndComp
$Comp
L power:GNDREF #PWR01
U 1 1 5CBF44BF
P 1450 1850
F 0 "#PWR01" H 1450 1600 50  0001 C CNN
F 1 "GNDREF" H 1455 1677 50  0000 C CNN
F 2 "" H 1450 1850 50  0001 C CNN
F 3 "" H 1450 1850 50  0001 C CNN
	1    1450 1850
	1    0    0    -1  
$EndComp
Wire Wire Line
	1350 1200 1450 1200
Wire Wire Line
	1450 1200 1450 1400
Wire Wire Line
	1450 1700 1350 1700
Connection ~ 1450 1700
Wire Wire Line
	1450 1700 1450 1850
Wire Wire Line
	1450 1500 1350 1500
Connection ~ 1450 1500
Wire Wire Line
	1450 1500 1450 1700
Wire Wire Line
	1450 1400 1350 1400
Connection ~ 1450 1400
Wire Wire Line
	1450 1400 1450 1500
$Comp
L Device:R R1
U 1 1 5CBF458F
P 1800 1600
F 0 "R1" V 1593 1600 50  0000 C CNN
F 1 "10k" V 1684 1600 50  0000 C CNN
F 2 "Resistor_THT:R_Axial_DIN0204_L3.6mm_D1.6mm_P7.62mm_Horizontal" V 1730 1600 50  0001 C CNN
F 3 "~" H 1800 1600 50  0001 C CNN
	1    1800 1600
	0    1    1    0   
$EndComp
$Comp
L Device:C C1
U 1 1 5CBF4605
P 2250 1600
F 0 "C1" V 1998 1600 50  0000 C CNN
F 1 "10n" V 2089 1600 50  0000 C CNN
F 2 "Capacitor_THT:C_Rect_L7.0mm_W3.5mm_P5.00mm" H 2288 1450 50  0001 C CNN
F 3 "~" H 2250 1600 50  0001 C CNN
	1    2250 1600
	0    1    1    0   
$EndComp
Wire Wire Line
	1350 1600 1650 1600
Wire Wire Line
	1950 1600 2100 1600
$Comp
L Device:R R2
U 1 1 5CBF472F
P 2500 1900
F 0 "R2" H 2570 1946 50  0000 L CNN
F 1 "1M" H 2570 1855 50  0000 L CNN
F 2 "Resistor_THT:R_Axial_DIN0204_L3.6mm_D1.6mm_P7.62mm_Horizontal" V 2430 1900 50  0001 C CNN
F 3 "~" H 2500 1900 50  0001 C CNN
	1    2500 1900
	1    0    0    -1  
$EndComp
Wire Wire Line
	2550 1600 2500 1600
$Comp
L uTerror-rescue:2SK30A-2SK30A Q1
U 1 1 5CBF9FD9
P 3150 1600
F 0 "Q1" H 2941 1646 50  0000 L CNN
F 1 "2SK30A" H 2941 1555 50  0000 L CNN
F 2 "Package_TO_SOT_THT:TO-92" H 3100 1650 50  0001 C CNN
F 3 "" H 3100 1650 50  0001 C CNN
	1    3150 1600
	1    0    0    -1  
$EndComp
Wire Wire Line
	2500 1750 2500 1600
Connection ~ 2500 1600
Wire Wire Line
	2500 1600 2400 1600
$Comp
L power:GNDREF #PWR02
U 1 1 5CBFA12B
P 2500 2100
F 0 "#PWR02" H 2500 1850 50  0001 C CNN
F 1 "GNDREF" H 2505 1927 50  0000 C CNN
F 2 "" H 2500 2100 50  0001 C CNN
F 3 "" H 2500 2100 50  0001 C CNN
	1    2500 2100
	1    0    0    -1  
$EndComp
Wire Wire Line
	2500 2100 2500 2050
Wire Wire Line
	2850 1800 2850 1850
$Comp
L Device:R R3
U 1 1 5CBFA37F
P 2850 2100
F 0 "R3" H 2920 2146 50  0000 L CNN
F 1 "10k" H 2920 2055 50  0000 L CNN
F 2 "Resistor_THT:R_Axial_DIN0204_L3.6mm_D1.6mm_P7.62mm_Horizontal" V 2780 2100 50  0001 C CNN
F 3 "~" H 2850 2100 50  0001 C CNN
	1    2850 2100
	1    0    0    -1  
$EndComp
$Comp
L power:GNDREF #PWR03
U 1 1 5CBFA403
P 2850 2400
F 0 "#PWR03" H 2850 2150 50  0001 C CNN
F 1 "GNDREF" H 2855 2227 50  0000 C CNN
F 2 "" H 2850 2400 50  0001 C CNN
F 3 "" H 2850 2400 50  0001 C CNN
	1    2850 2400
	1    0    0    -1  
$EndComp
Wire Wire Line
	2850 2400 2850 2250
$Comp
L Device:C C2
U 1 1 5CBFA4EC
P 3300 1850
F 0 "C2" V 3552 1850 50  0000 C CNN
F 1 "33n" V 3461 1850 50  0000 C CNN
F 2 "Capacitor_THT:C_Rect_L7.0mm_W3.5mm_P5.00mm" H 3338 1700 50  0001 C CNN
F 3 "~" H 3300 1850 50  0001 C CNN
	1    3300 1850
	0    -1   -1   0   
$EndComp
Wire Wire Line
	3150 1850 2850 1850
Connection ~ 2850 1850
Wire Wire Line
	2850 1850 2850 1950
$Comp
L Device:R R4
U 1 1 5CBFA644
P 3750 1850
F 0 "R4" V 3543 1850 50  0000 C CNN
F 1 "10k" V 3634 1850 50  0000 C CNN
F 2 "Resistor_THT:R_Axial_DIN0204_L3.6mm_D1.6mm_P7.62mm_Horizontal" V 3680 1850 50  0001 C CNN
F 3 "~" H 3750 1850 50  0001 C CNN
	1    3750 1850
	0    1    1    0   
$EndComp
Wire Wire Line
	3600 1850 3450 1850
$Comp
L Device:R R5
U 1 1 5CBFA79B
P 4050 2100
F 0 "R5" H 4120 2146 50  0000 L CNN
F 1 "470k" H 4120 2055 50  0000 L CNN
F 2 "Resistor_THT:R_Axial_DIN0204_L3.6mm_D1.6mm_P7.62mm_Horizontal" V 3980 2100 50  0001 C CNN
F 3 "~" H 4050 2100 50  0001 C CNN
	1    4050 2100
	1    0    0    -1  
$EndComp
Wire Wire Line
	4050 2400 4050 2250
Wire Wire Line
	4050 1950 4050 1850
Wire Wire Line
	3900 1850 4050 1850
$Comp
L Amplifier_Operational:NJM4558 U1
U 1 1 5CBFAB58
P 4500 1750
F 0 "U1" H 4500 1383 50  0000 C CNN
F 1 "NJM4558" H 4500 1474 50  0000 C CNN
F 2 "Package_DIP:DIP-8_W7.62mm" H 4500 1750 50  0001 C CNN
F 3 "" H 4500 1750 50  0001 C CNN
	1    4500 1750
	1    0    0    1   
$EndComp
Wire Wire Line
	4200 1850 4050 1850
Connection ~ 4050 1850
$Comp
L Device:C C4
U 1 1 5CBFB010
P 4500 1200
F 0 "C4" V 4248 1200 50  0000 C CNN
F 1 "22p" V 4339 1200 50  0000 C CNN
F 2 "Capacitor_THT:C_Axial_L3.8mm_D2.6mm_P7.50mm_Horizontal" H 4538 1050 50  0001 C CNN
F 3 "~" H 4500 1200 50  0001 C CNN
	1    4500 1200
	0    1    1    0   
$EndComp
$Comp
L Device:R R6
U 1 1 5CBFB081
P 4500 850
F 0 "R6" V 4293 850 50  0000 C CNN
F 1 "100k" V 4384 850 50  0000 C CNN
F 2 "Resistor_THT:R_Axial_DIN0204_L3.6mm_D1.6mm_P7.62mm_Horizontal" V 4430 850 50  0001 C CNN
F 3 "~" H 4500 850 50  0001 C CNN
	1    4500 850 
	0    1    1    0   
$EndComp
$Comp
L Device:R R7
U 1 1 5CBFB0F9
P 3800 850
F 0 "R7" V 3593 850 50  0000 C CNN
F 1 "5.6k" V 3684 850 50  0000 C CNN
F 2 "Resistor_THT:R_Axial_DIN0204_L3.6mm_D1.6mm_P7.62mm_Horizontal" V 3730 850 50  0001 C CNN
F 3 "~" H 3800 850 50  0001 C CNN
	1    3800 850 
	0    1    1    0   
$EndComp
$Comp
L Device:C C3
U 1 1 5CBFB1EE
P 3550 1100
F 0 "C3" H 3665 1146 50  0000 L CNN
F 1 "100n" H 3665 1055 50  0000 L CNN
F 2 "Capacitor_THT:C_Rect_L7.0mm_W3.5mm_P5.00mm" H 3588 950 50  0001 C CNN
F 3 "~" H 3550 1100 50  0001 C CNN
	1    3550 1100
	1    0    0    -1  
$EndComp
$Comp
L power:GNDREF #PWR04
U 1 1 5CBFB24D
P 3550 1250
F 0 "#PWR04" H 3550 1000 50  0001 C CNN
F 1 "GNDREF" H 3555 1077 50  0000 C CNN
F 2 "" H 3550 1250 50  0001 C CNN
F 3 "" H 3550 1250 50  0001 C CNN
	1    3550 1250
	1    0    0    -1  
$EndComp
Wire Wire Line
	3550 950  3550 850 
Wire Wire Line
	3550 850  3650 850 
Wire Wire Line
	4650 850  4900 850 
Wire Wire Line
	4900 850  4900 1200
Wire Wire Line
	4900 1750 4800 1750
Wire Wire Line
	4900 1200 4650 1200
Connection ~ 4900 1200
Wire Wire Line
	4900 1200 4900 1750
Wire Wire Line
	4350 1200 4100 1200
Wire Wire Line
	4100 1200 4100 1650
Wire Wire Line
	4100 1650 4200 1650
Wire Wire Line
	3950 850  4100 850 
Wire Wire Line
	4100 1200 4100 850 
Connection ~ 4100 1200
Connection ~ 4100 850 
Wire Wire Line
	4100 850  4350 850 
$Comp
L Device:C C5
U 1 1 5CBFCABA
P 5150 1750
F 0 "C5" V 4898 1750 50  0000 C CNN
F 1 "47n" V 4989 1750 50  0000 C CNN
F 2 "Capacitor_THT:C_Rect_L7.0mm_W3.5mm_P5.00mm" H 5188 1600 50  0001 C CNN
F 3 "~" H 5150 1750 50  0001 C CNN
	1    5150 1750
	0    1    1    0   
$EndComp
Wire Wire Line
	5000 1750 4900 1750
Connection ~ 4900 1750
$Comp
L Device:R R8
U 1 1 5CBFD373
P 5600 1750
F 0 "R8" V 5393 1750 50  0000 C CNN
F 1 "10k" V 5484 1750 50  0000 C CNN
F 2 "Resistor_THT:R_Axial_DIN0204_L3.6mm_D1.6mm_P7.62mm_Horizontal" V 5530 1750 50  0001 C CNN
F 3 "~" H 5600 1750 50  0001 C CNN
	1    5600 1750
	0    1    1    0   
$EndComp
Wire Wire Line
	5450 1750 5300 1750
$Comp
L Device:C C6
U 1 1 5CBFD8F0
P 6050 1750
F 0 "C6" V 5798 1750 50  0000 C CNN
F 1 "10p" V 5889 1750 50  0000 C CNN
F 2 "Capacitor_THT:C_Axial_L3.8mm_D2.6mm_P7.50mm_Horizontal" H 6088 1600 50  0001 C CNN
F 3 "~" H 6050 1750 50  0001 C CNN
	1    6050 1750
	0    1    1    0   
$EndComp
Wire Wire Line
	5900 1750 5850 1750
$Comp
L Device:R_POT_Dual_Separate VR1
U 1 1 5CBFDEF7
P 6450 1750
F 0 "VR1" H 6380 1704 50  0000 R CNN
F 1 "B100k" H 6380 1795 50  0000 R CNN
F 2 "Potentiometer_THT:Potentiometer_Alps_RK163_Dual_Horizontal" H 6450 1750 50  0001 C CNN
F 3 "~" H 6450 1750 50  0001 C CNN
	1    6450 1750
	-1   0    0    1   
$EndComp
Wire Wire Line
	6300 1750 6200 1750
Wire Wire Line
	6450 1600 6450 1350
Wire Wire Line
	6450 1350 5850 1350
Wire Wire Line
	5850 1350 5850 1750
Connection ~ 5850 1750
Wire Wire Line
	5850 1750 5750 1750
$Comp
L power:GNDREF #PWR06
U 1 1 5CBFEA49
P 6450 2000
F 0 "#PWR06" H 6450 1750 50  0001 C CNN
F 1 "GNDREF" H 6455 1827 50  0000 C CNN
F 2 "" H 6450 2000 50  0001 C CNN
F 3 "" H 6450 2000 50  0001 C CNN
	1    6450 2000
	1    0    0    -1  
$EndComp
Wire Wire Line
	6450 2000 6450 1900
$Comp
L Device:C C7
U 1 1 5CBFF0F5
P 5850 1900
F 0 "C7" H 5965 1946 50  0000 L CNN
F 1 "10n" H 5965 1855 50  0000 L CNN
F 2 "Capacitor_THT:C_Rect_L7.0mm_W3.5mm_P5.00mm" H 5888 1750 50  0001 C CNN
F 3 "~" H 5850 1900 50  0001 C CNN
	1    5850 1900
	1    0    0    -1  
$EndComp
$Comp
L Device:R R9
U 1 1 5CBFFEF7
P 5850 2250
F 0 "R9" V 5643 2250 50  0000 C CNN
F 1 "10k" V 5734 2250 50  0000 C CNN
F 2 "Resistor_THT:R_Axial_DIN0204_L3.6mm_D1.6mm_P7.62mm_Horizontal" V 5780 2250 50  0001 C CNN
F 3 "~" H 5850 2250 50  0001 C CNN
	1    5850 2250
	1    0    0    -1  
$EndComp
$Comp
L Amplifier_Operational:NJM4558 U1
U 2 1 5CBFFF7B
P 6650 2600
F 0 "U1" H 6650 2967 50  0000 C CNN
F 1 "NJM4558" H 6650 2876 50  0000 C CNN
F 2 "Package_DIP:DIP-8_W7.62mm" H 6650 2600 50  0001 C CNN
F 3 "" H 6650 2600 50  0001 C CNN
	2    6650 2600
	1    0    0    -1  
$EndComp
Wire Wire Line
	6950 2600 7000 2600
$Comp
L Device:R_POT_Dual_Separate VR1
U 2 1 5CC01587
P 7300 3050
F 0 "VR1" H 7230 3004 50  0000 R CNN
F 1 "B100k" H 7230 3095 50  0000 R CNN
F 2 "Potentiometer_THT:Potentiometer_Alps_RK163_Dual_Horizontal" H 7300 3050 50  0001 C CNN
F 3 "~" H 7300 3050 50  0001 C CNN
	2    7300 3050
	-1   0    0    1   
$EndComp
$Comp
L Device:C C8
U 1 1 5CC01690
P 7000 2800
F 0 "C8" H 7115 2846 50  0000 L CNN
F 1 "47p" H 7115 2755 50  0000 L CNN
F 2 "Capacitor_THT:C_Axial_L3.8mm_D2.6mm_P7.50mm_Horizontal" H 7038 2650 50  0001 C CNN
F 3 "~" H 7000 2800 50  0001 C CNN
	1    7000 2800
	1    0    0    -1  
$EndComp
Wire Wire Line
	7000 2650 7000 2600
Connection ~ 7000 2600
Wire Wire Line
	7000 2600 7300 2600
Wire Wire Line
	7150 3050 7000 3050
Wire Wire Line
	7000 3050 7000 2950
Wire Wire Line
	7300 2900 7300 2600
$Comp
L Device:R R11
U 1 1 5CC042D7
P 6650 3050
F 0 "R11" V 6443 3050 50  0000 C CNN
F 1 "100k" V 6534 3050 50  0000 C CNN
F 2 "Resistor_THT:R_Axial_DIN0204_L3.6mm_D1.6mm_P7.62mm_Horizontal" V 6580 3050 50  0001 C CNN
F 3 "~" H 6650 3050 50  0001 C CNN
	1    6650 3050
	0    1    1    0   
$EndComp
Wire Wire Line
	7000 3050 6800 3050
Connection ~ 7000 3050
Wire Wire Line
	6500 3050 6200 3050
Wire Wire Line
	6200 3050 6200 2700
Wire Wire Line
	6200 2700 6350 2700
$Comp
L Device:R R12
U 1 1 5CC0585D
P 7100 3500
F 0 "R12" V 6900 3450 50  0000 L CNN
F 1 "4.7k" V 7000 3450 50  0000 L CNN
F 2 "Resistor_THT:R_Axial_DIN0204_L3.6mm_D1.6mm_P7.62mm_Horizontal" V 7030 3500 50  0001 C CNN
F 3 "~" H 7100 3500 50  0001 C CNN
	1    7100 3500
	0    1    1    0   
$EndComp
$Comp
L Device:C C9
U 1 1 5CC0647E
P 6750 3500
F 0 "C9" V 6500 3450 50  0000 L CNN
F 1 "470n" V 6600 3400 50  0000 L CNN
F 2 "Capacitor_THT:C_Rect_L7.0mm_W3.5mm_P5.00mm" H 6788 3350 50  0001 C CNN
F 3 "~" H 6750 3500 50  0001 C CNN
	1    6750 3500
	0    1    1    0   
$EndComp
Wire Wire Line
	6900 3500 6950 3500
$Comp
L power:GNDREF #PWR07
U 1 1 5CC070B7
P 6500 3500
F 0 "#PWR07" H 6500 3250 50  0001 C CNN
F 1 "GNDREF" H 6505 3327 50  0000 C CNN
F 2 "" H 6500 3500 50  0001 C CNN
F 3 "" H 6500 3500 50  0001 C CNN
	1    6500 3500
	0    1    1    0   
$EndComp
Wire Wire Line
	6500 3500 6600 3500
$Comp
L Device:CP C10
U 1 1 5CC0825E
P 7650 2600
F 0 "C10" V 7395 2600 50  0000 C CNN
F 1 "1u" V 7486 2600 50  0000 C CNN
F 2 "Capacitor_THT:CP_Radial_D4.0mm_P2.00mm" H 7688 2450 50  0001 C CNN
F 3 "~" H 7650 2600 50  0001 C CNN
	1    7650 2600
	0    -1   1    0   
$EndComp
Wire Wire Line
	7500 2600 7300 2600
Connection ~ 7300 2600
$Comp
L Device:R R13
U 1 1 5CC0BD1B
P 8050 2600
F 0 "R13" V 7843 2600 50  0000 C CNN
F 1 "15k" V 7934 2600 50  0000 C CNN
F 2 "Resistor_THT:R_Axial_DIN0204_L3.6mm_D1.6mm_P7.62mm_Horizontal" V 7980 2600 50  0001 C CNN
F 3 "~" H 8050 2600 50  0001 C CNN
	1    8050 2600
	0    1    1    0   
$EndComp
Wire Wire Line
	7900 2600 7800 2600
$Comp
L Device:R R14
U 1 1 5CC0C9D9
P 8350 2850
F 0 "R14" H 8420 2896 50  0000 L CNN
F 1 "10k" H 8420 2805 50  0000 L CNN
F 2 "Resistor_THT:R_Axial_DIN0204_L3.6mm_D1.6mm_P7.62mm_Horizontal" V 8280 2850 50  0001 C CNN
F 3 "~" H 8350 2850 50  0001 C CNN
	1    8350 2850
	1    0    0    -1  
$EndComp
Wire Wire Line
	8350 2700 8350 2600
Wire Wire Line
	8350 2600 8200 2600
$Comp
L power:GNDREF #PWR08
U 1 1 5CC0D721
P 8350 3100
F 0 "#PWR08" H 8350 2850 50  0001 C CNN
F 1 "GNDREF" H 8355 2927 50  0000 C CNN
F 2 "" H 8350 3100 50  0001 C CNN
F 3 "" H 8350 3100 50  0001 C CNN
	1    8350 3100
	1    0    0    -1  
$EndComp
Wire Wire Line
	8350 3100 8350 3000
Text GLabel 4050 2400 3    50   Input ~ 0
Vbias
Wire Wire Line
	5850 2100 5850 2050
Wire Wire Line
	6350 2500 5850 2500
Wire Wire Line
	5850 2500 5850 2400
$Comp
L Device:R R10
U 1 1 5CC186AC
P 5850 2750
F 0 "R10" H 5920 2796 50  0000 L CNN
F 1 "470k" H 5920 2705 50  0000 L CNN
F 2 "Resistor_THT:R_Axial_DIN0204_L3.6mm_D1.6mm_P7.62mm_Horizontal" V 5780 2750 50  0001 C CNN
F 3 "~" H 5850 2750 50  0001 C CNN
	1    5850 2750
	1    0    0    -1  
$EndComp
Wire Wire Line
	5850 2600 5850 2500
Connection ~ 5850 2500
Text GLabel 5850 2950 3    50   Input ~ 0
Vbias
Wire Wire Line
	5850 2950 5850 2900
Wire Wire Line
	8350 2600 8650 2600
Connection ~ 8350 2600
$Comp
L Valve:ECC83 VC1
U 2 1 5CC46352
P 1100 4550
F 0 "VC1" H 1327 4596 50  0000 L CNN
F 1 "ECC83" H 1327 4505 50  0000 L CNN
F 2 "Valve:Valve_Noval_P" H 1370 4150 50  0001 C CNN
F 3 "http://www.r-type.org/pdfs/ecc83.pdf" H 1100 4550 50  0001 C CNN
	2    1100 4550
	1    0    0    -1  
$EndComp
$Comp
L power:GNDREF #PWR0101
U 1 1 5CC464DF
P 1000 4950
F 0 "#PWR0101" H 1000 4700 50  0001 C CNN
F 1 "GNDREF" H 1005 4777 50  0000 C CNN
F 2 "" H 1000 4950 50  0001 C CNN
F 3 "" H 1000 4950 50  0001 C CNN
	1    1000 4950
	1    0    0    -1  
$EndComp
Wire Wire Line
	550  4550 800  4550
Text Label 550  4550 0    50   ~ 0
VC1-2
Text Label 8650 2600 0    50   ~ 0
VC1-2
$Comp
L Device:R R16
U 1 1 5CC4BFEE
P 1450 3950
F 0 "R16" V 1243 3950 50  0000 C CNN
F 1 "68k" V 1334 3950 50  0000 C CNN
F 2 "Resistor_THT:R_Axial_DIN0204_L3.6mm_D1.6mm_P7.62mm_Horizontal" V 1380 3950 50  0001 C CNN
F 3 "~" H 1450 3950 50  0001 C CNN
	1    1450 3950
	0    1    1    0   
$EndComp
$Comp
L Device:C C12
U 1 1 5CC4C0A4
P 1100 3650
F 0 "C12" H 1215 3696 50  0000 L CNN
F 1 "22n" H 1215 3605 50  0000 L CNN
F 2 "Capacitor_THT:C_Rect_L7.0mm_W3.5mm_P5.00mm" H 1138 3500 50  0001 C CNN
F 3 "~" H 1100 3650 50  0001 C CNN
	1    1100 3650
	1    0    0    -1  
$EndComp
$Comp
L Device:R R17
U 1 1 5CC4C12D
P 1350 3300
F 0 "R17" V 1143 3300 50  0000 C CNN
F 1 "100k" V 1234 3300 50  0000 C CNN
F 2 "Resistor_THT:R_Axial_DIN0204_L3.6mm_D1.6mm_P7.62mm_Horizontal" V 1280 3300 50  0001 C CNN
F 3 "~" H 1350 3300 50  0001 C CNN
	1    1350 3300
	0    1    1    0   
$EndComp
Wire Wire Line
	1350 1300 1600 1300
Wire Wire Line
	1600 3300 1500 3300
Wire Wire Line
	1200 3300 1100 3300
Wire Wire Line
	1100 3300 1100 3500
Wire Wire Line
	1100 3800 1100 3950
Wire Wire Line
	1300 3950 1100 3950
Connection ~ 1100 3950
Wire Wire Line
	1100 3950 1100 4150
$Comp
L Device:R R15
U 1 1 5CC53BCD
P 1900 3800
F 0 "R15" H 1700 3850 50  0000 L CNN
F 1 "1k" H 1750 3750 50  0000 L CNN
F 2 "Resistor_THT:R_Axial_DIN0204_L3.6mm_D1.6mm_P7.62mm_Horizontal" V 1830 3800 50  0001 C CNN
F 3 "~" H 1900 3800 50  0001 C CNN
	1    1900 3800
	1    0    0    -1  
$EndComp
Wire Wire Line
	1900 3650 1900 3600
Text GLabel 1900 3600 1    50   Input ~ 0
Vs
$Comp
L Valve:ECC83 VC1
U 1 1 5CC56C88
P 2450 4550
F 0 "VC1" H 2677 4596 50  0000 L CNN
F 1 "ECC83" H 2677 4505 50  0000 L CNN
F 2 "Valve:Valve_Noval_P" H 2720 4150 50  0001 C CNN
F 3 "http://www.r-type.org/pdfs/ecc83.pdf" H 2450 4550 50  0001 C CNN
	1    2450 4550
	1    0    0    -1  
$EndComp
Wire Wire Line
	1650 4550 1650 3300
Wire Wire Line
	1650 3300 1600 3300
Wire Wire Line
	1650 4550 1900 4550
Connection ~ 1600 3300
$Comp
L Device:R R19
U 1 1 5CC66E27
P 1900 4700
F 0 "R19" H 1970 4746 50  0000 L CNN
F 1 "47k" H 1970 4655 50  0000 L CNN
F 2 "Resistor_THT:R_Axial_DIN0204_L3.6mm_D1.6mm_P7.62mm_Horizontal" V 1830 4700 50  0001 C CNN
F 3 "~" H 1900 4700 50  0001 C CNN
	1    1900 4700
	1    0    0    -1  
$EndComp
$Comp
L power:GNDREF #PWR0102
U 1 1 5CC66EC8
P 1900 4850
F 0 "#PWR0102" H 1900 4600 50  0001 C CNN
F 1 "GNDREF" H 1905 4677 50  0000 C CNN
F 2 "" H 1900 4850 50  0001 C CNN
F 3 "" H 1900 4850 50  0001 C CNN
	1    1900 4850
	1    0    0    -1  
$EndComp
$Comp
L power:GNDREF #PWR0103
U 1 1 5CC66F3B
P 2350 4950
F 0 "#PWR0103" H 2350 4700 50  0001 C CNN
F 1 "GNDREF" H 2355 4777 50  0000 C CNN
F 2 "" H 2350 4950 50  0001 C CNN
F 3 "" H 2350 4950 50  0001 C CNN
	1    2350 4950
	1    0    0    -1  
$EndComp
$Comp
L Device:R R20
U 1 1 5CC66FF8
P 2200 3950
F 0 "R20" V 1993 3950 50  0000 C CNN
F 1 "150k" V 2084 3950 50  0000 C CNN
F 2 "Resistor_THT:R_Axial_DIN0204_L3.6mm_D1.6mm_P7.62mm_Horizontal" V 2130 3950 50  0001 C CNN
F 3 "~" H 2200 3950 50  0001 C CNN
	1    2200 3950
	0    1    1    0   
$EndComp
Wire Wire Line
	2450 4150 2450 3950
Wire Wire Line
	2450 3950 2350 3950
Wire Wire Line
	2050 3950 1900 3950
Connection ~ 1900 3950
$Comp
L Device:CP C11
U 1 1 5CC6C8EC
P 1900 4100
F 0 "C11" H 2018 4146 50  0000 L CNN
F 1 "10u" H 2018 4055 50  0000 L CNN
F 2 "Capacitor_THT:CP_Radial_D4.0mm_P2.00mm" H 1938 3950 50  0001 C CNN
F 3 "~" H 1900 4100 50  0001 C CNN
	1    1900 4100
	1    0    0    -1  
$EndComp
$Comp
L power:GNDREF #PWR0104
U 1 1 5CC6C97B
P 1900 4250
F 0 "#PWR0104" H 1900 4000 50  0001 C CNN
F 1 "GNDREF" H 1905 4077 50  0000 C CNN
F 2 "" H 1900 4250 50  0001 C CNN
F 3 "" H 1900 4250 50  0001 C CNN
	1    1900 4250
	1    0    0    -1  
$EndComp
Wire Wire Line
	1600 1300 1600 3300
$Comp
L Valve:ECC83 VC1
U 3 1 5CC70F0A
P 900 2300
F 0 "VC1" H 1128 2265 50  0000 L CNN
F 1 "ECC83" H 1128 2174 50  0000 L CNN
F 2 "Valve:Valve_Noval_P" H 1170 1900 50  0001 C CNN
F 3 "http://www.r-type.org/pdfs/ecc83.pdf" H 900 2300 50  0001 C CNN
	3    900  2300
	1    0    0    -1  
$EndComp
$Comp
L power:GNDREF #PWR0105
U 1 1 5CC710D9
P 1000 2750
F 0 "#PWR0105" H 1000 2500 50  0001 C CNN
F 1 "GNDREF" H 1000 2600 50  0001 C CNN
F 2 "" H 1000 2750 50  0001 C CNN
F 3 "" H 1000 2750 50  0001 C CNN
	1    1000 2750
	1    0    0    -1  
$EndComp
Text GLabel 800  2750 3    50   Input ~ 0
VC1-4
NoConn ~ 900  2750
Wire Wire Line
	1600 3950 1900 3950
Connection ~ 1900 4550
Wire Wire Line
	1900 4550 2150 4550
$Comp
L Device:R R21
U 1 1 5CC7F087
P 2750 3950
F 0 "R21" V 2543 3950 50  0000 C CNN
F 1 "10k" V 2634 3950 50  0000 C CNN
F 2 "Resistor_THT:R_Axial_DIN0204_L3.6mm_D1.6mm_P7.62mm_Horizontal" V 2680 3950 50  0001 C CNN
F 3 "~" H 2750 3950 50  0001 C CNN
	1    2750 3950
	0    1    1    0   
$EndComp
$Comp
L Device:C C13
U 1 1 5CC7F148
P 3200 3950
F 0 "C13" V 2948 3950 50  0000 C CNN
F 1 "1n" V 3039 3950 50  0000 C CNN
F 2 "Capacitor_THT:C_Rect_L7.0mm_W3.5mm_P5.00mm" H 3238 3800 50  0001 C CNN
F 3 "~" H 3200 3950 50  0001 C CNN
	1    3200 3950
	0    1    1    0   
$EndComp
$Comp
L Device:R R22
U 1 1 5CC7F20A
P 3500 3600
F 0 "R22" H 3570 3646 50  0000 L CNN
F 1 "1M" H 3570 3555 50  0000 L CNN
F 2 "Resistor_THT:R_Axial_DIN0204_L3.6mm_D1.6mm_P7.62mm_Horizontal" V 3430 3600 50  0001 C CNN
F 3 "~" H 3500 3600 50  0001 C CNN
	1    3500 3600
	1    0    0    -1  
$EndComp
Wire Wire Line
	2450 3950 2600 3950
Connection ~ 2450 3950
Wire Wire Line
	2900 3950 3050 3950
Text GLabel 3500 3450 1    50   Input ~ 0
Vbias
Wire Wire Line
	4250 4050 4350 4050
Wire Wire Line
	4350 4050 4350 4400
Wire Wire Line
	4350 4400 3550 4400
Wire Wire Line
	3550 4400 3550 4150
Wire Wire Line
	3550 4150 3650 4150
$Comp
L power:GNDREF #PWR0106
U 1 1 5CC87E21
P 3150 4950
F 0 "#PWR0106" H 3150 4700 50  0001 C CNN
F 1 "GNDREF" H 3155 4777 50  0000 C CNN
F 2 "" H 3150 4950 50  0001 C CNN
F 3 "" H 3150 4950 50  0001 C CNN
	1    3150 4950
	1    0    0    -1  
$EndComp
Text GLabel 3150 4350 1    50   Input ~ 0
vcc
$Comp
L Amplifier_Operational:RC4558 U1
U 3 1 5CC8A9D0
P 5200 2650
F 0 "U1" H 5158 2696 50  0000 L CNN
F 1 "NJM4558" H 5158 2605 50  0000 L CNN
F 2 "Package_DIP:DIP-8_W7.62mm" H 5200 2650 50  0001 C CNN
F 3 "" H 5200 2650 50  0001 C CNN
	3    5200 2650
	1    0    0    -1  
$EndComp
Text GLabel 5100 2350 1    50   Input ~ 0
vcc
$Comp
L Device:CP C14
U 1 1 5CC8D57C
P 4650 4050
F 0 "C14" V 4395 4050 50  0000 C CNN
F 1 "1u" V 4486 4050 50  0000 C CNN
F 2 "Capacitor_THT:CP_Radial_D4.0mm_P2.00mm" H 4688 3900 50  0001 C CNN
F 3 "~" H 4650 4050 50  0001 C CNN
	1    4650 4050
	0    -1   1    0   
$EndComp
$Comp
L Device:R R23
U 1 1 5CC8D6BF
P 5100 4050
F 0 "R23" V 4893 4050 50  0000 C CNN
F 1 "1kk" V 4984 4050 50  0000 C CNN
F 2 "Resistor_THT:R_Axial_DIN0204_L3.6mm_D1.6mm_P7.62mm_Horizontal" V 5030 4050 50  0001 C CNN
F 3 "~" H 5100 4050 50  0001 C CNN
	1    5100 4050
	0    1    1    0   
$EndComp
Wire Wire Line
	7300 3500 7250 3500
Wire Wire Line
	7300 3200 7300 3500
Wire Wire Line
	4500 4050 4350 4050
Connection ~ 4350 4050
Wire Wire Line
	4800 4050 4950 4050
$Comp
L Device:C C16
U 1 1 5CCA65C9
P 5550 4050
F 0 "C16" V 5298 4050 50  0000 C CNN
F 1 "22n" V 5389 4050 50  0000 C CNN
F 2 "Capacitor_THT:C_Rect_L7.0mm_W3.5mm_P5.00mm" H 5588 3900 50  0001 C CNN
F 3 "~" H 5550 4050 50  0001 C CNN
	1    5550 4050
	0    1    1    0   
$EndComp
$Comp
L Device:R R24
U 1 1 5CCA6700
P 6000 4050
F 0 "R24" V 5793 4050 50  0000 C CNN
F 1 "1k" V 5884 4050 50  0000 C CNN
F 2 "Resistor_THT:R_Axial_DIN0204_L3.6mm_D1.6mm_P7.62mm_Horizontal" V 5930 4050 50  0001 C CNN
F 3 "~" H 6000 4050 50  0001 C CNN
	1    6000 4050
	0    1    1    0   
$EndComp
$Comp
L Device:R R25
U 1 1 5CCA67E0
P 6000 4350
F 0 "R25" H 5750 4400 50  0000 L CNN
F 1 "6.8k" H 5750 4300 50  0000 L CNN
F 2 "Resistor_THT:R_Axial_DIN0204_L3.6mm_D1.6mm_P7.62mm_Horizontal" V 5930 4350 50  0001 C CNN
F 3 "~" H 6000 4350 50  0001 C CNN
	1    6000 4350
	1    0    0    -1  
$EndComp
$Comp
L power:GNDREF #PWR0108
U 1 1 5CCA68BB
P 6000 4500
F 0 "#PWR0108" H 6000 4250 50  0001 C CNN
F 1 "GNDREF" H 6000 4350 50  0000 C CNN
F 2 "" H 6000 4500 50  0001 C CNN
F 3 "" H 6000 4500 50  0001 C CNN
	1    6000 4500
	1    0    0    -1  
$EndComp
Wire Wire Line
	5700 4050 5800 4050
Wire Wire Line
	5800 4050 5800 4200
Wire Wire Line
	5800 4200 6000 4200
Connection ~ 5800 4050
Wire Wire Line
	5800 4050 5850 4050
Wire Wire Line
	6000 4200 6250 4200
Wire Wire Line
	6250 4200 6250 4050
Wire Wire Line
	6250 4050 6150 4050
Connection ~ 6000 4200
Wire Wire Line
	5400 4050 5350 4050
$Comp
L Device:R_POT VR2
U 1 1 5CCB1E35
P 6500 4350
F 0 "VR2" H 6430 4396 50  0000 R CNN
F 1 "B25k" H 6430 4305 50  0000 R CNN
F 2 "Potentiometer_THT:Potentiometer_Alps_RK163_Single_Horizontal" H 6500 4350 50  0001 C CNN
F 3 "~" H 6500 4350 50  0001 C CNN
	1    6500 4350
	1    0    0    -1  
$EndComp
Wire Wire Line
	6500 4200 6500 4050
Wire Wire Line
	6500 4050 6250 4050
Connection ~ 6250 4050
Wire Wire Line
	6500 4500 6500 4800
Wire Wire Line
	5350 4800 5350 4050
Connection ~ 5350 4050
Wire Wire Line
	5350 4050 5250 4050
$Comp
L Device:R R26
U 1 1 5CCB8DFB
P 6000 4800
F 0 "R26" V 6100 4800 50  0000 C CNN
F 1 "6.8k" V 6200 4800 50  0000 C CNN
F 2 "Resistor_THT:R_Axial_DIN0204_L3.6mm_D1.6mm_P7.62mm_Horizontal" V 5930 4800 50  0001 C CNN
F 3 "~" H 6000 4800 50  0001 C CNN
	1    6000 4800
	0    -1   1    0   
$EndComp
Wire Wire Line
	5850 4800 5350 4800
$Comp
L Device:C C15
U 1 1 5CCCFE90
P 5350 4950
F 0 "C15" H 5465 4996 50  0000 L CNN
F 1 "22n" H 5465 4905 50  0000 L CNN
F 2 "Capacitor_THT:C_Rect_L7.0mm_W3.5mm_P5.00mm" H 5388 4800 50  0001 C CNN
F 3 "~" H 5350 4950 50  0001 C CNN
	1    5350 4950
	1    0    0    -1  
$EndComp
Connection ~ 5350 4800
$Comp
L Device:C C17
U 1 1 5CCCFF35
P 6500 4950
F 0 "C17" H 6615 4996 50  0000 L CNN
F 1 "100n" H 6615 4905 50  0000 L CNN
F 2 "Capacitor_THT:C_Rect_L7.0mm_W3.5mm_P5.00mm" H 6538 4800 50  0001 C CNN
F 3 "~" H 6500 4950 50  0001 C CNN
	1    6500 4950
	1    0    0    -1  
$EndComp
Connection ~ 6500 4800
Wire Wire Line
	6150 4800 6500 4800
$Comp
L power:GNDREF #PWR0110
U 1 1 5CCD0185
P 6500 5100
F 0 "#PWR0110" H 6500 4850 50  0001 C CNN
F 1 "GNDREF" H 6505 4927 50  0001 C CNN
F 2 "" H 6500 5100 50  0001 C CNN
F 3 "" H 6500 5100 50  0001 C CNN
	1    6500 5100
	1    0    0    -1  
$EndComp
Wire Wire Line
	3350 3950 3500 3950
Wire Wire Line
	3500 3750 3500 3950
Connection ~ 3500 3950
Wire Wire Line
	3500 3950 3650 3950
$Comp
L Device:C C18
U 1 1 5CCD827E
P 7000 4350
F 0 "C18" V 6748 4350 50  0000 C CNN
F 1 "10n" V 6839 4350 50  0000 C CNN
F 2 "Capacitor_THT:C_Rect_L7.0mm_W3.5mm_P5.00mm" H 7038 4200 50  0001 C CNN
F 3 "~" H 7000 4350 50  0001 C CNN
	1    7000 4350
	0    1    1    0   
$EndComp
$Comp
L Device:R R27
U 1 1 5CCD837C
P 7500 4350
F 0 "R27" V 7293 4350 50  0000 C CNN
F 1 "10k" V 7384 4350 50  0000 C CNN
F 2 "Resistor_THT:R_Axial_DIN0204_L3.6mm_D1.6mm_P7.62mm_Horizontal" V 7430 4350 50  0001 C CNN
F 3 "~" H 7500 4350 50  0001 C CNN
	1    7500 4350
	0    1    1    0   
$EndComp
$Comp
L Device:R R28
U 1 1 5CCD8471
P 7900 4100
F 0 "R28" H 7970 4146 50  0000 L CNN
F 1 "470k" H 7970 4055 50  0000 L CNN
F 2 "Resistor_THT:R_Axial_DIN0204_L3.6mm_D1.6mm_P7.62mm_Horizontal" V 7830 4100 50  0001 C CNN
F 3 "~" H 7900 4100 50  0001 C CNN
	1    7900 4100
	1    0    0    -1  
$EndComp
Text GLabel 7900 3950 1    50   Input ~ 0
Vbias
Wire Wire Line
	6650 4350 6850 4350
Wire Wire Line
	7150 4350 7350 4350
Wire Wire Line
	7650 4350 7900 4350
Wire Wire Line
	7900 4250 7900 4350
Connection ~ 7900 4350
Wire Wire Line
	7900 4350 8100 4350
$Comp
L Device:R R30
U 1 1 5CCEAA3F
P 7750 4550
F 0 "R30" V 7850 4550 50  0000 C CNN
F 1 "10k" V 7950 4550 50  0000 C CNN
F 2 "Resistor_THT:R_Axial_DIN0204_L3.6mm_D1.6mm_P7.62mm_Horizontal" V 7680 4550 50  0001 C CNN
F 3 "~" H 7750 4550 50  0001 C CNN
	1    7750 4550
	0    1    1    0   
$EndComp
$Comp
L Device:C C19
U 1 1 5CCEAE2A
P 7500 4900
F 0 "C19" H 7615 4946 50  0000 L CNN
F 1 "100n" H 7615 4855 50  0000 L CNN
F 2 "Capacitor_THT:C_Rect_L7.0mm_W3.5mm_P5.00mm" H 7538 4750 50  0001 C CNN
F 3 "~" H 7500 4900 50  0001 C CNN
	1    7500 4900
	1    0    0    -1  
$EndComp
Wire Wire Line
	7500 4750 7500 4550
Wire Wire Line
	7500 4550 7600 4550
Wire Wire Line
	7900 4550 8000 4550
$Comp
L power:GNDREF #PWR0107
U 1 1 5CCF29BF
P 7500 5050
F 0 "#PWR0107" H 7500 4800 50  0001 C CNN
F 1 "GNDREF" H 7505 4877 50  0000 C CNN
F 2 "" H 7500 5050 50  0001 C CNN
F 3 "" H 7500 5050 50  0001 C CNN
	1    7500 5050
	1    0    0    -1  
$EndComp
$Comp
L Device:C C20
U 1 1 5CCF2A62
P 8400 4900
F 0 "C20" V 8148 4900 50  0000 C CNN
F 1 "47p" V 8239 4900 50  0000 C CNN
F 2 "Capacitor_THT:C_Axial_L3.8mm_D2.6mm_P7.50mm_Horizontal" H 8438 4750 50  0001 C CNN
F 3 "~" H 8400 4900 50  0001 C CNN
	1    8400 4900
	0    1    1    0   
$EndComp
$Comp
L Device:R R29
U 1 1 5CCF2B5E
P 8400 5250
F 0 "R29" V 8193 5250 50  0000 C CNN
F 1 "22k" V 8284 5250 50  0000 C CNN
F 2 "Resistor_THT:R_Axial_DIN0204_L3.6mm_D1.6mm_P7.62mm_Horizontal" V 8330 5250 50  0001 C CNN
F 3 "~" H 8400 5250 50  0001 C CNN
	1    8400 5250
	0    1    1    0   
$EndComp
Wire Wire Line
	8250 5250 8000 5250
Wire Wire Line
	8000 5250 8000 4900
Connection ~ 8000 4550
Wire Wire Line
	8000 4550 8100 4550
Wire Wire Line
	8250 4900 8000 4900
Connection ~ 8000 4900
Wire Wire Line
	8000 4900 8000 4550
Wire Wire Line
	8700 4450 8850 4450
Wire Wire Line
	8850 4450 8850 4900
Wire Wire Line
	8850 4900 8550 4900
Wire Wire Line
	8850 4900 8850 5250
Wire Wire Line
	8850 5250 8550 5250
Connection ~ 8850 4900
$Comp
L Device:CP C21
U 1 1 5CD0356D
P 9200 4450
F 0 "C21" V 9455 4450 50  0000 C CNN
F 1 "1u" V 9364 4450 50  0000 C CNN
F 2 "Capacitor_THT:CP_Radial_D4.0mm_P2.00mm" H 9238 4300 50  0001 C CNN
F 3 "~" H 9200 4450 50  0001 C CNN
	1    9200 4450
	0    -1   -1   0   
$EndComp
Wire Wire Line
	9050 4450 8850 4450
Connection ~ 8850 4450
$Comp
L Device:R R31
U 1 1 5CD07D59
P 9650 4450
F 0 "R31" V 9443 4450 50  0000 C CNN
F 1 "15k" V 9534 4450 50  0000 C CNN
F 2 "Resistor_THT:R_Axial_DIN0204_L3.6mm_D1.6mm_P7.62mm_Horizontal" V 9580 4450 50  0001 C CNN
F 3 "~" H 9650 4450 50  0001 C CNN
	1    9650 4450
	0    1    1    0   
$EndComp
Wire Wire Line
	9350 4450 9500 4450
Text Label 9800 4450 0    50   ~ 0
U3B-6
$Comp
L Amplifier_Operational:NJM4560 U3
U 2 1 5CC8D3E9
P 1600 5900
F 0 "U3" H 1600 6267 50  0000 C CNN
F 1 "NJM4560" H 1600 6176 50  0000 C CNN
F 2 "Package_DIP:DIP-8_W7.62mm" H 1600 5900 50  0001 C CNN
F 3 "http://www.njr.com/semicon/PDF/NJM4560_E.pdf" H 1600 5900 50  0001 C CNN
	2    1600 5900
	1    0    0    -1  
$EndComp
Text GLabel 1300 5800 0    50   Input ~ 0
Vbias
Wire Wire Line
	1300 6000 1250 6000
Text Label 850  6000 2    50   ~ 0
U3B-6
$Comp
L Device:R R32
U 1 1 5CC92708
P 1650 6300
F 0 "R32" V 1443 6300 50  0000 C CNN
F 1 "15k" V 1534 6300 50  0000 C CNN
F 2 "Resistor_THT:R_Axial_DIN0204_L3.6mm_D1.6mm_P7.62mm_Horizontal" V 1580 6300 50  0001 C CNN
F 3 "~" H 1650 6300 50  0001 C CNN
	1    1650 6300
	0    1    1    0   
$EndComp
$Comp
L Device:R R34
U 1 1 5CC9296B
P 1650 7050
F 0 "R34" V 1443 7050 50  0000 C CNN
F 1 "6.8k" V 1534 7050 50  0000 C CNN
F 2 "Resistor_THT:R_Axial_DIN0204_L3.6mm_D1.6mm_P7.62mm_Horizontal" V 1580 7050 50  0001 C CNN
F 3 "~" H 1650 7050 50  0001 C CNN
	1    1650 7050
	0    1    1    0   
$EndComp
$Comp
L Device:R R33
U 1 1 5CC92A75
P 1650 7450
F 0 "R33" V 1443 7450 50  0000 C CNN
F 1 "6.8k" V 1534 7450 50  0000 C CNN
F 2 "Resistor_THT:R_Axial_DIN0204_L3.6mm_D1.6mm_P7.62mm_Horizontal" V 1580 7450 50  0001 C CNN
F 3 "~" H 1650 7450 50  0001 C CNN
	1    1650 7450
	0    1    1    0   
$EndComp
$Comp
L Device:CP C25
U 1 1 5CC92B45
P 2100 7050
F 0 "C25" V 1845 7050 50  0000 C CNN
F 1 "10u" V 1936 7050 50  0000 C CNN
F 2 "Capacitor_THT:CP_Radial_D4.0mm_P2.00mm" H 2138 6900 50  0001 C CNN
F 3 "~" H 2100 7050 50  0001 C CNN
	1    2100 7050
	0    -1   1    0   
$EndComp
$Comp
L Device:CP C24
U 1 1 5CC92CE5
P 2100 7450
F 0 "C24" V 1845 7450 50  0000 C CNN
F 1 "10u" V 1936 7450 50  0000 C CNN
F 2 "Capacitor_THT:CP_Radial_D4.0mm_P2.00mm" H 2138 7300 50  0001 C CNN
F 3 "~" H 2100 7450 50  0001 C CNN
	1    2100 7450
	0    -1   1    0   
$EndComp
Wire Wire Line
	1250 6000 1250 6300
Wire Wire Line
	1250 7450 1500 7450
Connection ~ 1250 6000
Wire Wire Line
	1250 6000 850  6000
Wire Wire Line
	1500 7050 1250 7050
Connection ~ 1250 7050
Wire Wire Line
	1250 7050 1250 7450
Wire Wire Line
	1500 6650 1250 6650
Connection ~ 1250 6650
Wire Wire Line
	1250 6650 1250 7050
Wire Wire Line
	1500 6300 1250 6300
Connection ~ 1250 6300
Wire Wire Line
	1250 6300 1250 6650
Wire Wire Line
	1950 7050 1800 7050
Wire Wire Line
	1950 7450 1800 7450
$Comp
L power:GNDREF #PWR0109
U 1 1 5CCC26F7
P 2950 7150
F 0 "#PWR0109" H 2950 6900 50  0001 C CNN
F 1 "GNDREF" V 2955 7022 50  0001 R CNN
F 2 "" H 2950 7150 50  0001 C CNN
F 3 "" H 2950 7150 50  0001 C CNN
	1    2950 7150
	0    1    1    0   
$EndComp
Wire Wire Line
	2250 7050 2250 7250
Wire Wire Line
	2250 7250 2750 7250
Wire Wire Line
	2950 7350 2450 7350
$Comp
L Device:R R35
U 1 1 5CCD4464
P 2450 7500
F 0 "R35" H 2520 7546 50  0000 L CNN
F 1 "100k" H 2520 7455 50  0000 L CNN
F 2 "Resistor_THT:R_Axial_DIN0204_L3.6mm_D1.6mm_P7.62mm_Horizontal" V 2380 7500 50  0001 C CNN
F 3 "~" H 2450 7500 50  0001 C CNN
	1    2450 7500
	1    0    0    -1  
$EndComp
Connection ~ 2450 7350
Wire Wire Line
	2450 7350 2250 7350
$Comp
L Device:R R36
U 1 1 5CCD4539
P 2750 7400
F 0 "R36" H 2820 7446 50  0000 L CNN
F 1 "100k" H 2820 7355 50  0000 L CNN
F 2 "Resistor_THT:R_Axial_DIN0204_L3.6mm_D1.6mm_P7.62mm_Horizontal" V 2680 7400 50  0001 C CNN
F 3 "~" H 2750 7400 50  0001 C CNN
	1    2750 7400
	1    0    0    -1  
$EndComp
Connection ~ 2750 7250
Wire Wire Line
	2750 7250 2950 7250
$Comp
L power:GNDREF #PWR0111
U 1 1 5CCD4618
P 2450 7650
F 0 "#PWR0111" H 2450 7400 50  0001 C CNN
F 1 "GNDREF" H 2455 7477 50  0001 C CNN
F 2 "" H 2450 7650 50  0001 C CNN
F 3 "" H 2450 7650 50  0001 C CNN
	1    2450 7650
	1    0    0    -1  
$EndComp
$Comp
L power:GNDREF #PWR0112
U 1 1 5CCD46C0
P 2750 7550
F 0 "#PWR0112" H 2750 7300 50  0001 C CNN
F 1 "GNDREF" H 2755 7377 50  0001 C CNN
F 2 "" H 2750 7550 50  0001 C CNN
F 3 "" H 2750 7550 50  0001 C CNN
	1    2750 7550
	1    0    0    -1  
$EndComp
Wire Wire Line
	2250 7350 2250 7450
Wire Wire Line
	2000 6300 2000 5900
Wire Wire Line
	2000 6300 2000 6650
Wire Wire Line
	2000 6650 1800 6650
Connection ~ 2000 6300
Wire Wire Line
	1800 6300 2000 6300
Wire Wire Line
	2000 5900 1900 5900
$Comp
L Device:C C22
U 1 1 5CCF71AC
P 1650 6650
F 0 "C22" V 1398 6650 50  0000 C CNN
F 1 "47p" V 1489 6650 50  0000 C CNN
F 2 "Capacitor_THT:C_Axial_L3.8mm_D2.6mm_P7.50mm_Horizontal" H 1688 6500 50  0001 C CNN
F 3 "~" H 1650 6650 50  0001 C CNN
	1    1650 6650
	0    1    1    0   
$EndComp
$Comp
L Device:CP C23
U 1 1 5CCF74A8
P 2300 5900
F 0 "C23" V 2045 5900 50  0000 C CNN
F 1 "10u" V 2136 5900 50  0000 C CNN
F 2 "Capacitor_THT:CP_Radial_D4.0mm_P2.00mm" H 2338 5750 50  0001 C CNN
F 3 "~" H 2300 5900 50  0001 C CNN
	1    2300 5900
	0    -1   1    0   
$EndComp
Wire Wire Line
	2150 5900 2000 5900
Connection ~ 2000 5900
$Comp
L Device:R_POT VR4
U 1 1 5CD1317C
P 2700 6100
F 0 "VR4" H 2630 6146 50  0000 R CNN
F 1 "B25k" H 2630 6055 50  0000 R CNN
F 2 "Potentiometer_THT:Potentiometer_Alps_RK163_Single_Horizontal" H 2700 6100 50  0001 C CNN
F 3 "~" H 2700 6100 50  0001 C CNN
	1    2700 6100
	1    0    0    -1  
$EndComp
Wire Wire Line
	2700 5950 2700 5900
Wire Wire Line
	2700 5900 2450 5900
$Comp
L power:GNDREF #PWR0113
U 1 1 5CD1A594
P 2700 6250
F 0 "#PWR0113" H 2700 6000 50  0001 C CNN
F 1 "GNDREF" H 2705 6077 50  0000 C CNN
F 2 "" H 2700 6250 50  0001 C CNN
F 3 "" H 2700 6250 50  0001 C CNN
	1    2700 6250
	1    0    0    -1  
$EndComp
Wire Wire Line
	2950 6100 2850 6100
$Comp
L Device:CP C26
U 1 1 5CD30C5D
P 3100 6100
F 0 "C26" V 2845 6100 50  0000 C CNN
F 1 "1u" V 2936 6100 50  0000 C CNN
F 2 "Capacitor_THT:CP_Radial_D4.0mm_P2.00mm" H 3138 5950 50  0001 C CNN
F 3 "~" H 3100 6100 50  0001 C CNN
	1    3100 6100
	0    1    1    0   
$EndComp
$Comp
L Device:R R37
U 1 1 5CD30D8B
P 3500 6100
F 0 "R37" V 3293 6100 50  0000 C CNN
F 1 "6.8k" V 3384 6100 50  0000 C CNN
F 2 "Resistor_THT:R_Axial_DIN0204_L3.6mm_D1.6mm_P7.62mm_Horizontal" V 3430 6100 50  0001 C CNN
F 3 "~" H 3500 6100 50  0001 C CNN
	1    3500 6100
	0    1    1    0   
$EndComp
Wire Wire Line
	3350 6100 3250 6100
$Comp
L Amplifier_Operational:NJM4560 U3
U 1 1 5CD385AE
P 4050 6000
F 0 "U3" H 4050 6367 50  0000 C CNN
F 1 "NJM4560" H 4050 6276 50  0000 C CNN
F 2 "Package_DIP:DIP-8_W7.62mm" H 4050 6000 50  0001 C CNN
F 3 "http://www.njr.com/semicon/PDF/NJM4560_E.pdf" H 4050 6000 50  0001 C CNN
	1    4050 6000
	1    0    0    -1  
$EndComp
Text GLabel 3700 5750 1    50   Input ~ 0
Vbias
Wire Wire Line
	3700 5900 3700 5750
$Comp
L power:GNDREF #PWR0114
U 1 1 5CD78113
P 5100 2950
F 0 "#PWR0114" H 5100 2700 50  0001 C CNN
F 1 "GNDREF" H 5105 2777 50  0000 C CNN
F 2 "" H 5100 2950 50  0001 C CNN
F 3 "" H 5100 2950 50  0001 C CNN
	1    5100 2950
	1    0    0    -1  
$EndComp
Wire Wire Line
	3750 5900 3700 5900
Wire Wire Line
	3750 6100 3700 6100
$Comp
L Amplifier_Operational:NJM4560 U3
U 3 1 5CDA6E44
P 4700 5250
F 0 "U3" H 4658 5296 50  0000 L CNN
F 1 "NJM4560" H 4658 5205 50  0000 L CNN
F 2 "Package_DIP:DIP-8_W7.62mm" H 4700 5250 50  0001 C CNN
F 3 "http://www.njr.com/semicon/PDF/NJM4560_E.pdf" H 4700 5250 50  0001 C CNN
	3    4700 5250
	1    0    0    -1  
$EndComp
$Comp
L power:GNDREF #PWR0115
U 1 1 5CDA6F25
P 4600 5550
F 0 "#PWR0115" H 4600 5300 50  0001 C CNN
F 1 "GNDREF" H 4605 5377 50  0000 C CNN
F 2 "" H 4600 5550 50  0001 C CNN
F 3 "" H 4600 5550 50  0001 C CNN
	1    4600 5550
	1    0    0    -1  
$EndComp
Text GLabel 4600 4950 1    50   Input ~ 0
vcc
$Comp
L Device:R R40
U 1 1 5CDA7180
P 4050 6450
F 0 "R40" V 3843 6450 50  0000 C CNN
F 1 "22k" V 3934 6450 50  0000 C CNN
F 2 "Resistor_THT:R_Axial_DIN0204_L3.6mm_D1.6mm_P7.62mm_Horizontal" V 3980 6450 50  0001 C CNN
F 3 "~" H 4050 6450 50  0001 C CNN
	1    4050 6450
	0    1    1    0   
$EndComp
$Comp
L Device:C C27
U 1 1 5CDA72C2
P 4050 6850
F 0 "C27" V 3798 6850 50  0000 C CNN
F 1 "47p" V 3889 6850 50  0000 C CNN
F 2 "Capacitor_THT:C_Axial_L3.8mm_D2.6mm_P7.50mm_Horizontal" H 4088 6700 50  0001 C CNN
F 3 "~" H 4050 6850 50  0001 C CNN
	1    4050 6850
	0    1    1    0   
$EndComp
Wire Wire Line
	3700 6100 3700 6450
Wire Wire Line
	3700 6450 3900 6450
Connection ~ 3700 6100
Wire Wire Line
	3700 6100 3650 6100
Wire Wire Line
	3900 6850 3700 6850
Wire Wire Line
	3700 6850 3700 6450
Connection ~ 3700 6450
Wire Wire Line
	4200 6450 4450 6450
Wire Wire Line
	4450 6450 4450 6000
Wire Wire Line
	4450 6000 4350 6000
Wire Wire Line
	4450 6450 4450 6850
Wire Wire Line
	4450 6850 4200 6850
Connection ~ 4450 6450
Connection ~ 4450 6000
$Comp
L Device:CP C38
U 1 1 5CDE4068
P 5150 6350
F 0 "C38" H 5032 6396 50  0000 R CNN
F 1 "100u" H 5032 6305 50  0000 R CNN
F 2 "Capacitor_THT:CP_Radial_D5.0mm_P2.50mm" H 5188 6200 50  0001 C CNN
F 3 "~" H 5150 6350 50  0001 C CNN
	1    5150 6350
	-1   0    0    -1  
$EndComp
$Comp
L Device:CP C28
U 1 1 5CDECEDD
P 5450 5600
F 0 "C28" V 5195 5600 50  0000 C CNN
F 1 "10u" V 5286 5600 50  0000 C CNN
F 2 "Capacitor_THT:CP_Radial_D4.0mm_P2.00mm" H 5488 5450 50  0001 C CNN
F 3 "~" H 5450 5600 50  0001 C CNN
	1    5450 5600
	0    -1   1    0   
$EndComp
$Comp
L power:GNDREF #PWR0116
U 1 1 5CDED103
P 5350 5100
F 0 "#PWR0116" H 5350 4850 50  0001 C CNN
F 1 "GNDREF" H 5355 4927 50  0001 C CNN
F 2 "" H 5350 5100 50  0001 C CNN
F 3 "" H 5350 5100 50  0001 C CNN
	1    5350 5100
	1    0    0    -1  
$EndComp
Wire Wire Line
	4450 6000 5150 6000
Wire Wire Line
	5150 6000 5150 5600
Wire Wire Line
	5150 5600 5300 5600
Connection ~ 5150 6000
Wire Wire Line
	5600 5600 5900 5600
Text GLabel 5900 5600 2    50   Input ~ 0
U4-4;5
Wire Wire Line
	5150 6200 5150 6000
$Comp
L Device:R R50
U 1 1 5CE12F4D
P 5000 6750
F 0 "R50" H 5070 6796 50  0000 L CNN
F 1 "22" H 5070 6705 50  0000 L CNN
F 2 "Resistor_THT:R_Axial_DIN0204_L3.6mm_D1.6mm_P7.62mm_Horizontal" V 4930 6750 50  0001 C CNN
F 3 "~" H 5000 6750 50  0001 C CNN
	1    5000 6750
	1    0    0    -1  
$EndComp
$Comp
L Device:R R49
U 1 1 5CE13031
P 5300 6750
F 0 "R49" H 5370 6796 50  0000 L CNN
F 1 "22" H 5370 6705 50  0000 L CNN
F 2 "Resistor_THT:R_Axial_DIN0204_L3.6mm_D1.6mm_P7.62mm_Horizontal" V 5230 6750 50  0001 C CNN
F 3 "~" H 5300 6750 50  0001 C CNN
	1    5300 6750
	1    0    0    -1  
$EndComp
Wire Wire Line
	5000 6600 5000 6500
Wire Wire Line
	5000 6500 5150 6500
Wire Wire Line
	5150 6500 5300 6500
Wire Wire Line
	5300 6500 5300 6600
Connection ~ 5150 6500
$Comp
L Connector:AudioJack3_Switch JK2
U 1 1 5CE6C1F1
P 4600 7400
F 0 "JK2" H 4604 7842 50  0000 C CNN
F 1 "PHONES" H 4604 7751 50  0000 C CNN
F 2 "audio_connector:Headphone_Jack_6.35mm" H 4600 7400 50  0001 C CNN
F 3 "~" H 4600 7400 50  0001 C CNN
	1    4600 7400
	1    0    0    -1  
$EndComp
NoConn ~ 4800 7500
NoConn ~ 4800 7700
$Comp
L power:GNDREF #PWR0117
U 1 1 5CE7F940
P 4250 7200
F 0 "#PWR0117" H 4250 6950 50  0001 C CNN
F 1 "GNDREF" H 4255 7027 50  0000 C CNN
F 2 "" H 4250 7200 50  0001 C CNN
F 3 "" H 4250 7200 50  0001 C CNN
	1    4250 7200
	1    0    0    -1  
$EndComp
Wire Wire Line
	4250 7200 4250 6900
Wire Wire Line
	4250 6900 4800 6900
Wire Wire Line
	4800 6900 4800 7200
Wire Wire Line
	5000 7400 4800 7400
Wire Wire Line
	5000 6900 5000 7400
Wire Wire Line
	5300 7600 4800 7600
Wire Wire Line
	5300 6900 5300 7600
Wire Wire Line
	4800 7300 5500 7300
$Comp
L Device:R R38
U 1 1 5CEA8B1C
P 5650 7300
F 0 "R38" V 5443 7300 50  0000 C CNN
F 1 "1k" V 5534 7300 50  0000 C CNN
F 2 "Resistor_THT:R_Axial_DIN0204_L3.6mm_D1.6mm_P7.62mm_Horizontal" V 5580 7300 50  0001 C CNN
F 3 "~" H 5650 7300 50  0001 C CNN
	1    5650 7300
	0    1    1    0   
$EndComp
$Comp
L uTerror-rescue:2SC3198-2SC3198 Q2
U 1 1 5CEAA667
P 6150 6550
F 0 "Q2" V 6428 6550 50  0000 C CNN
F 1 "KTC3198" V 6337 6550 50  0000 C CNN
F 2 "Package_TO_SOT_THT:TO-92" H 6150 6550 50  0001 C CNN
F 3 "" H 6150 6550 50  0001 C CNN
	1    6150 6550
	0    -1   -1   0   
$EndComp
Wire Wire Line
	6150 7300 5800 7300
Wire Wire Line
	6150 6800 6150 6900
$Comp
L Device:R R39
U 1 1 5CED5241
P 5900 6900
F 0 "R39" V 5693 6900 50  0000 C CNN
F 1 "100k" V 5784 6900 50  0000 C CNN
F 2 "Resistor_THT:R_Axial_DIN0204_L3.6mm_D1.6mm_P7.62mm_Horizontal" V 5830 6900 50  0001 C CNN
F 3 "~" H 5900 6900 50  0001 C CNN
	1    5900 6900
	0    1    1    0   
$EndComp
Wire Wire Line
	5650 6900 5750 6900
Wire Wire Line
	6050 6900 6150 6900
Connection ~ 6150 6900
Wire Wire Line
	6150 6900 6150 7300
$Comp
L power:GNDREF #PWR0118
U 1 1 5CEEAE88
P 6500 6650
F 0 "#PWR0118" H 6500 6400 50  0001 C CNN
F 1 "GNDREF" H 6505 6477 50  0000 C CNN
F 2 "" H 6500 6650 50  0001 C CNN
F 3 "" H 6500 6650 50  0001 C CNN
	1    6500 6650
	1    0    0    -1  
$EndComp
Wire Wire Line
	6500 6650 6500 6500
Wire Wire Line
	6500 6500 6350 6500
$Comp
L Device:R R41
U 1 1 5CF182D2
P 5650 6300
F 0 "R41" H 5720 6346 50  0000 L CNN
F 1 "100k" H 5720 6255 50  0000 L CNN
F 2 "Resistor_THT:R_Axial_DIN0204_L3.6mm_D1.6mm_P7.62mm_Horizontal" V 5580 6300 50  0001 C CNN
F 3 "~" H 5650 6300 50  0001 C CNN
	1    5650 6300
	1    0    0    -1  
$EndComp
Text GLabel 5650 6100 1    50   Input ~ 0
Vs
Wire Wire Line
	5650 6150 5650 6100
Wire Wire Line
	5650 6450 5650 6500
Connection ~ 5650 6500
Wire Wire Line
	5650 6500 5650 6900
$Comp
L Device:CP C30
U 1 1 5CF2F583
P 6150 6050
F 0 "C30" V 6405 6050 50  0000 C CNN
F 1 "220u" V 6314 6050 50  0000 C CNN
F 2 "Capacitor_THT:CP_Radial_D6.3mm_P2.50mm" H 6188 5900 50  0001 C CNN
F 3 "~" H 6150 6050 50  0001 C CNN
	1    6150 6050
	0    -1   -1   0   
$EndComp
Wire Wire Line
	6300 6050 6500 6050
Wire Wire Line
	6500 6050 6500 6500
Connection ~ 6500 6500
Text GLabel 5900 6000 1    50   Input ~ 0
U4-7
Wire Wire Line
	5650 6500 5900 6500
Wire Wire Line
	5900 6500 5900 6050
Connection ~ 5900 6500
Wire Wire Line
	5900 6500 5950 6500
Wire Wire Line
	5900 6050 6000 6050
Wire Wire Line
	5900 6050 5900 6000
Connection ~ 5900 6050
$Comp
L Amplifier_Operational:RC4558 U2
U 2 1 5CC7F381
P 3950 4050
F 0 "U2" H 3950 4417 50  0000 C CNN
F 1 "NJM4558" H 3950 4326 50  0000 C CNN
F 2 "Package_DIP:DIP-8_W7.62mm" H 3950 4050 50  0001 C CNN
F 3 "" H 3950 4050 50  0001 C CNN
	2    3950 4050
	1    0    0    -1  
$EndComp
$Comp
L Amplifier_Operational:NJM4558 U2
U 1 1 5CCD860D
P 8400 4450
F 0 "U2" H 8400 4817 50  0000 C CNN
F 1 "NJM4558" H 8400 4726 50  0000 C CNN
F 2 "Package_DIP:DIP-8_W7.62mm" H 8400 4450 50  0001 C CNN
F 3 "" H 8400 4450 50  0001 C CNN
	1    8400 4450
	1    0    0    -1  
$EndComp
$Comp
L Amplifier_Operational:RC4558 U2
U 3 1 5CC87D8A
P 3250 4650
F 0 "U2" H 3208 4696 50  0000 L CNN
F 1 "NJM4558" H 3208 4605 50  0000 L CNN
F 2 "Package_DIP:DIP-8_W7.62mm" H 3250 4650 50  0001 C CNN
F 3 "" H 3250 4650 50  0001 C CNN
	3    3250 4650
	1    0    0    -1  
$EndComp
$Comp
L uTerror-rescue:STA540-STA540 U4
U 1 1 5CCA5A6D
P 7750 1600
F 0 "U4" H 7750 2315 50  0000 C CNN
F 1 "STA540" H 7750 2224 50  0000 C CNN
F 2 "Package_TO_SOT_THT:TO-220-15_P2.54x2.54mm_StaggerOdd_Lead4.58mm_Vertical" H 7700 2000 50  0001 C CNN
F 3 "" H 7700 2000 50  0001 C CNN
	1    7750 1600
	1    0    0    -1  
$EndComp
Text Label 7050 1350 0    50   ~ 0
U4-7
Wire Wire Line
	7050 1350 7300 1350
Wire Wire Line
	6950 1550 7300 1550
Text Label 6950 1550 0    50   ~ 0
U4-4;5
Wire Wire Line
	7300 1250 7300 1150
Wire Wire Line
	7300 1150 7300 900 
Connection ~ 7300 1150
Text GLabel 7300 900  1    50   Input ~ 0
Vs
Wire Wire Line
	7300 1850 7300 1750
Wire Wire Line
	8200 2050 8200 2200
$Comp
L power:GNDREF #PWR0119
U 1 1 5CD2261A
P 8200 2200
F 0 "#PWR0119" H 8200 1950 50  0001 C CNN
F 1 "GNDREF" H 8205 2027 50  0000 C CNN
F 2 "" H 8200 2200 50  0001 C CNN
F 3 "" H 8200 2200 50  0001 C CNN
	1    8200 2200
	1    0    0    -1  
$EndComp
NoConn ~ 7300 2050
Connection ~ 8200 2050
Connection ~ 7300 1550
Wire Wire Line
	7300 1650 7300 1550
Wire Wire Line
	8200 1950 8200 2050
NoConn ~ 8200 1550
NoConn ~ 8200 1450
NoConn ~ 8200 1750
$Comp
L Connector:AudioJack3_Switch J3
U 1 1 5CD92B68
P 9500 1800
F 0 "J3" H 9267 1821 50  0000 R CNN
F 1 "SP.OUT" H 9267 1730 50  0000 R CNN
F 2 "audio_connector:Headphone_Jack_6.35mm" H 9500 1800 50  0001 C CNN
F 3 "~" H 9500 1800 50  0001 C CNN
	1    9500 1800
	-1   0    0    -1  
$EndComp
NoConn ~ 9300 1700
NoConn ~ 9300 1800
NoConn ~ 9300 1900
Wire Wire Line
	9300 2100 9300 2000
Wire Wire Line
	8750 2000 8750 1250
Wire Wire Line
	8750 1250 8200 1250
Connection ~ 9300 2000
Wire Wire Line
	8900 1600 8900 1150
Wire Wire Line
	8900 1150 8200 1150
$Comp
L Device:C C100
U 1 1 5CDDF2E8
P 8950 1800
F 0 "C100" H 9065 1846 50  0000 L CNN
F 1 "220n" H 9065 1755 50  0000 L CNN
F 2 "Capacitor_THT:CP_Radial_D6.3mm_P2.50mm" H 8988 1650 50  0001 C CNN
F 3 "~" H 8950 1800 50  0001 C CNN
	1    8950 1800
	1    0    0    -1  
$EndComp
Wire Wire Line
	8900 1600 8950 1600
Wire Wire Line
	8750 2000 8950 2000
Wire Wire Line
	8950 1950 8950 2000
Connection ~ 8950 2000
Wire Wire Line
	8950 2000 9300 2000
Wire Wire Line
	8950 1650 8950 1600
Connection ~ 8950 1600
Wire Wire Line
	8950 1600 9300 1600
$Comp
L Connector:Jack-DC J5
U 1 1 5CE22292
P 6950 5800
F 0 "J5" H 7005 6125 50  0000 C CNN
F 1 "Jack-DC" H 7005 6034 50  0000 C CNN
F 2 "Connector_BarrelJack:BarrelJack_Horizontal" H 7000 5760 50  0001 C CNN
F 3 "~" H 7000 5760 50  0001 C CNN
	1    6950 5800
	1    0    0    -1  
$EndComp
$Comp
L power:GNDREF #PWR0120
U 1 1 5CE2250A
P 7250 6050
F 0 "#PWR0120" H 7250 5800 50  0001 C CNN
F 1 "GNDREF" H 7255 5877 50  0001 C CNN
F 2 "" H 7250 6050 50  0001 C CNN
F 3 "" H 7250 6050 50  0001 C CNN
	1    7250 6050
	1    0    0    -1  
$EndComp
Wire Wire Line
	7250 6050 7250 5900
Wire Wire Line
	7250 5700 7400 5700
$Comp
L Diode:1N4007 D1
U 1 1 5CE3D90F
P 7400 5900
F 0 "D1" V 7354 5979 50  0000 L CNN
F 1 "1N4007" V 7445 5979 50  0000 L CNN
F 2 "Diode_THT:D_DO-41_SOD81_P10.16mm_Horizontal" H 7400 5725 50  0001 C CNN
F 3 "http://www.vishay.com/docs/88503/1n4001.pdf" H 7400 5900 50  0001 C CNN
	1    7400 5900
	0    1    1    0   
$EndComp
Wire Wire Line
	7400 5750 7400 5700
$Comp
L power:GNDREF #PWR0121
U 1 1 5CE4B5ED
P 7400 6050
F 0 "#PWR0121" H 7400 5800 50  0001 C CNN
F 1 "GNDREF" H 7405 5877 50  0001 C CNN
F 2 "" H 7400 6050 50  0001 C CNN
F 3 "" H 7400 6050 50  0001 C CNN
	1    7400 6050
	1    0    0    -1  
$EndComp
$Comp
L Switch:SW_SPST SW1
U 1 1 5CE4BC53
P 7600 5700
F 0 "SW1" H 7600 5935 50  0000 C CNN
F 1 "SW_SPST" H 7600 5844 50  0000 C CNN
F 2 "Connector_PinHeader_2.54mm:PinHeader_1x02_P2.54mm_Vertical" H 7600 5700 50  0001 C CNN
F 3 "" H 7600 5700 50  0001 C CNN
	1    7600 5700
	1    0    0    -1  
$EndComp
Connection ~ 7400 5700
$Comp
L Device:CP C33
U 1 1 5CE4BD5F
P 7850 5850
F 0 "C33" H 7968 5896 50  0000 L CNN
F 1 "2200u" H 7968 5805 50  0000 L CNN
F 2 "Capacitor_THT:CP_Radial_D10.0mm_P3.80mm" H 7888 5700 50  0001 C CNN
F 3 "~" H 7850 5850 50  0001 C CNN
	1    7850 5850
	1    0    0    -1  
$EndComp
$Comp
L Device:CP C34
U 1 1 5CE4BE5B
P 8300 5850
F 0 "C34" H 8418 5896 50  0000 L CNN
F 1 "1000u" H 8418 5805 50  0000 L CNN
F 2 "Capacitor_THT:CP_Radial_D10.0mm_P3.80mm" H 8338 5700 50  0001 C CNN
F 3 "~" H 8300 5850 50  0001 C CNN
	1    8300 5850
	1    0    0    -1  
$EndComp
$Comp
L Device:R R43
U 1 1 5CE59FB2
P 8700 5850
F 0 "R43" H 8770 5896 50  0000 L CNN
F 1 "10" H 8770 5805 50  0000 L CNN
F 2 "Resistor_THT:R_Axial_DIN0204_L3.6mm_D1.6mm_P7.62mm_Horizontal" V 8630 5850 50  0001 C CNN
F 3 "~" H 8700 5850 50  0001 C CNN
	1    8700 5850
	1    0    0    -1  
$EndComp
$Comp
L Device:R R44
U 1 1 5CE5A0A2
P 9200 5850
F 0 "R44" H 9270 5896 50  0000 L CNN
F 1 "16" H 9270 5805 50  0000 L CNN
F 2 "Resistor_THT:R_Axial_DIN0204_L3.6mm_D1.6mm_P7.62mm_Horizontal" V 9130 5850 50  0001 C CNN
F 3 "~" H 9200 5850 50  0001 C CNN
	1    9200 5850
	1    0    0    -1  
$EndComp
$Comp
L Device:R R45
U 1 1 5CE5A182
P 9650 5850
F 0 "R45" H 9720 5896 50  0000 L CNN
F 1 "10k" H 9720 5805 50  0000 L CNN
F 2 "Resistor_THT:R_Axial_DIN0204_L3.6mm_D1.6mm_P7.62mm_Horizontal" V 9580 5850 50  0001 C CNN
F 3 "~" H 9650 5850 50  0001 C CNN
	1    9650 5850
	1    0    0    -1  
$EndComp
$Comp
L Device:R R46
U 1 1 5CE5A266
P 9650 6200
F 0 "R46" H 9720 6246 50  0000 L CNN
F 1 "10k" H 9720 6155 50  0000 L CNN
F 2 "Resistor_THT:R_Axial_DIN0204_L3.6mm_D1.6mm_P7.62mm_Horizontal" V 9580 6200 50  0001 C CNN
F 3 "~" H 9650 6200 50  0001 C CNN
	1    9650 6200
	1    0    0    -1  
$EndComp
$Comp
L Device:R R47
U 1 1 5CE5A350
P 10450 5850
F 0 "R47" H 10520 5896 50  0000 L CNN
F 1 "1k" H 10520 5805 50  0000 L CNN
F 2 "Resistor_THT:R_Axial_DIN0204_L3.6mm_D1.6mm_P7.62mm_Horizontal" V 10380 5850 50  0001 C CNN
F 3 "~" H 10450 5850 50  0001 C CNN
	1    10450 5850
	1    0    0    -1  
$EndComp
$Comp
L Device:Lamp LA1
U 1 1 5CE5A6F5
P 10450 6200
F 0 "LA1" H 10578 6246 50  0000 L CNN
F 1 "Lamp" H 10578 6155 50  0000 L CNN
F 2 "Connector_PinHeader_2.54mm:PinHeader_1x02_P2.54mm_Vertical" V 10450 6300 50  0001 C CNN
F 3 "~" V 10450 6300 50  0001 C CNN
	1    10450 6200
	1    0    0    -1  
$EndComp
$Comp
L power:GNDREF #PWR0122
U 1 1 5CE5A7FE
P 10450 6400
F 0 "#PWR0122" H 10450 6150 50  0001 C CNN
F 1 "GNDREF" H 10455 6227 50  0001 C CNN
F 2 "" H 10450 6400 50  0001 C CNN
F 3 "" H 10450 6400 50  0001 C CNN
	1    10450 6400
	1    0    0    -1  
$EndComp
Wire Wire Line
	7800 5700 7850 5700
Wire Wire Line
	7850 5700 8300 5700
Connection ~ 7850 5700
$Comp
L power:GNDREF #PWR0123
U 1 1 5CE92A2C
P 7850 6050
F 0 "#PWR0123" H 7850 5800 50  0001 C CNN
F 1 "GNDREF" H 7855 5877 50  0001 C CNN
F 2 "" H 7850 6050 50  0001 C CNN
F 3 "" H 7850 6050 50  0001 C CNN
	1    7850 6050
	1    0    0    -1  
$EndComp
$Comp
L power:GNDREF #PWR0124
U 1 1 5CE92B0D
P 8300 6050
F 0 "#PWR0124" H 8300 5800 50  0001 C CNN
F 1 "GNDREF" H 8305 5877 50  0001 C CNN
F 2 "" H 8300 6050 50  0001 C CNN
F 3 "" H 8300 6050 50  0001 C CNN
	1    8300 6050
	1    0    0    -1  
$EndComp
Wire Wire Line
	8300 6050 8300 6000
Wire Wire Line
	7850 6050 7850 6000
$Comp
L Device:CP C35
U 1 1 5CEAF0EF
P 8700 6200
F 0 "C35" H 8818 6246 50  0000 L CNN
F 1 "100u" H 8818 6155 50  0000 L CNN
F 2 "Capacitor_THT:CP_Radial_D5.0mm_P2.50mm" H 8738 6050 50  0001 C CNN
F 3 "~" H 8700 6200 50  0001 C CNN
	1    8700 6200
	1    0    0    -1  
$EndComp
$Comp
L power:GNDREF #PWR0125
U 1 1 5CEAF33B
P 8700 6350
F 0 "#PWR0125" H 8700 6100 50  0001 C CNN
F 1 "GNDREF" H 8705 6177 50  0001 C CNN
F 2 "" H 8700 6350 50  0001 C CNN
F 3 "" H 8700 6350 50  0001 C CNN
	1    8700 6350
	1    0    0    -1  
$EndComp
Wire Wire Line
	8700 6050 8700 6000
Wire Wire Line
	8300 5700 8700 5700
Connection ~ 8300 5700
$Comp
L Device:CP C40
U 1 1 5CEE8BAA
P 9200 6200
F 0 "C40" H 9318 6246 50  0000 L CNN
F 1 "100u" H 9318 6155 50  0000 L CNN
F 2 "Capacitor_THT:CP_Radial_D5.0mm_P2.50mm" H 9238 6050 50  0001 C CNN
F 3 "~" H 9200 6200 50  0001 C CNN
	1    9200 6200
	1    0    0    -1  
$EndComp
Wire Wire Line
	9200 6050 9200 6000
$Comp
L power:GNDREF #PWR0126
U 1 1 5CF226B7
P 9200 6350
F 0 "#PWR0126" H 9200 6100 50  0001 C CNN
F 1 "GNDREF" H 9205 6177 50  0001 C CNN
F 2 "" H 9200 6350 50  0001 C CNN
F 3 "" H 9200 6350 50  0001 C CNN
	1    9200 6350
	1    0    0    -1  
$EndComp
Wire Wire Line
	9200 5700 8700 5700
Connection ~ 8700 5700
Wire Wire Line
	9650 5700 9200 5700
Connection ~ 9200 5700
Wire Wire Line
	9650 6050 9650 6000
$Comp
L power:GNDREF #PWR0127
U 1 1 5CF4EC30
P 9650 6350
F 0 "#PWR0127" H 9650 6100 50  0001 C CNN
F 1 "GNDREF" H 9655 6177 50  0001 C CNN
F 2 "" H 9650 6350 50  0001 C CNN
F 3 "" H 9650 6350 50  0001 C CNN
	1    9650 6350
	1    0    0    -1  
$EndComp
$Comp
L Device:CP C36
U 1 1 5CF5D92E
P 10000 6200
F 0 "C36" H 10118 6246 50  0000 L CNN
F 1 "100u" H 10118 6155 50  0000 L CNN
F 2 "Capacitor_THT:CP_Radial_D5.0mm_P2.50mm" H 10038 6050 50  0001 C CNN
F 3 "~" H 10000 6200 50  0001 C CNN
	1    10000 6200
	1    0    0    -1  
$EndComp
Wire Wire Line
	10000 6050 9650 6050
Connection ~ 9650 6050
$Comp
L power:GNDREF #PWR0128
U 1 1 5CF7B1E7
P 10000 6350
F 0 "#PWR0128" H 10000 6100 50  0001 C CNN
F 1 "GNDREF" H 10005 6177 50  0001 C CNN
F 2 "" H 10000 6350 50  0001 C CNN
F 3 "" H 10000 6350 50  0001 C CNN
	1    10000 6350
	1    0    0    -1  
$EndComp
Wire Wire Line
	9650 5700 10450 5700
Connection ~ 9650 5700
Wire Wire Line
	9200 5700 9200 5550
Text GLabel 9200 5550 1    50   Input ~ 0
Vs
Text GLabel 8800 6050 2    50   Input ~ 0
VCC
Wire Wire Line
	8800 6050 8700 6050
Connection ~ 8700 6050
Wire Wire Line
	9200 6050 9300 6050
Connection ~ 9200 6050
Text Label 9300 6050 0    50   ~ 0
VC1-4
Text GLabel 10000 6050 1    50   Input ~ 0
Vbias
$Comp
L Device:CP C39
U 1 1 5CFF4DD8
P 3150 1300
F 0 "C39" H 3268 1346 50  0000 L CNN
F 1 "10u" H 3268 1255 50  0000 L CNN
F 2 "Capacitor_THT:CP_Radial_D4.0mm_P2.00mm" H 3188 1150 50  0001 C CNN
F 3 "~" H 3150 1300 50  0001 C CNN
	1    3150 1300
	1    0    0    -1  
$EndComp
$Comp
L Device:R R48
U 1 1 5CFF4EEF
P 2850 850
F 0 "R48" H 2920 896 50  0000 L CNN
F 1 "1k" H 2920 805 50  0000 L CNN
F 2 "Resistor_THT:R_Axial_DIN0204_L3.6mm_D1.6mm_P7.62mm_Horizontal" V 2780 850 50  0001 C CNN
F 3 "~" H 2850 850 50  0001 C CNN
	1    2850 850 
	1    0    0    -1  
$EndComp
$Comp
L power:GNDREF #PWR0129
U 1 1 5CFF5016
P 3150 1450
F 0 "#PWR0129" H 3150 1200 50  0001 C CNN
F 1 "GNDREF" H 3155 1277 50  0001 C CNN
F 2 "" H 3150 1450 50  0001 C CNN
F 3 "" H 3150 1450 50  0001 C CNN
	1    3150 1450
	1    0    0    -1  
$EndComp
Wire Wire Line
	3150 1150 2850 1150
Wire Wire Line
	2850 1150 2850 1000
Wire Wire Line
	2850 1150 2850 1400
Connection ~ 2850 1150
Text GLabel 2850 700  1    50   Input ~ 0
VCC
$Comp
L Connector:AudioJack3 Jk4
U 1 1 5CCBC231
P 3150 7250
F 0 "Jk4" H 2917 7271 50  0000 R CNN
F 1 "AUX IN" H 2917 7180 50  0000 R CNN
F 2 "Connector_Audio:Jack_3.5mm_Neutrik_NMJ6HCD2_Horizontal" H 3150 7250 50  0001 C CNN
F 3 "~" H 3150 7250 50  0001 C CNN
	1    3150 7250
	-1   0    0    -1  
$EndComp
$EndSCHEMATC
